{"success":true,"message":"List Data Users","data":{"current_page":1,"data":[{"id":1,"name":"Kariane Bogisich","email":"xbreitenberg@example.com","email_verified_at":"2021-09-23T04:50:17.000000Z","created_at":"2021-09-23T04:50:17.000000Z","updated_at":"2021-09-23T04:50:17.000000Z"},{"id":2,"name":"Prof. Wilhelm DuBuque","email":"herminio51@example.org","email_verified_at":"2021-09-23T04:50:17.000000Z","created_at":"2021-09-23T04:50:17.000000Z","updated_at":"2021-09-23T04:50:17.000000Z"},{"id":3,"name":"Prof. Kathryn Monahan I","email":"emmett.armstrong@example.com","email_verified_at":"2021-09-23T04:50:17.000000Z","created_at":"2021-09-23T04:50:17.000000Z","updated_at":"2021-09-23T04:50:17.000000Z"},{"id":4,"name":"Breanne Treutel","email":"jaida.klocko@example.com","email_verified_at":"2021-09-23T04:50:17.000000Z","created_at":"2021-09-23T04:50:17.000000Z","updated_at":"2021-09-23T04:50:17.000000Z"},{"id":5,"name":"Rubie McLaughlin","email":"presley67@example.org","email_verified_at":"2021-09-23T04:50:17.000000Z","created_at":"2021-09-23T04:50:17.000000Z","updated_at":"2021-09-23T04:50:17.000000Z"}],"first_page_url":"http:\/\/127.0.0.1:8000\/api\/admin\/users?page=1","from":1,"last_page":3,"last_page_url":"http:\/\/127.0.0.1:8000\/api\/admin\/users?page=3","links":[{"url":null,"label":"&laquo; Previous","active":false},{"url":"http:\/\/127.0.0.1:8000\/api\/admin\/users?page=1","label":"1","active":true},{"url":"http:\/\/127.0.0.1:8000\/api\/admin\/users?page=2","label":"2","active":false},{"url":"http:\/\/127.0.0.1:8000\/api\/admin\/users?page=3","label":"3","active":false},{"url":"http:\/\/127.0.0.1:8000\/api\/admin\/users?page=2","label":"Next &raquo;","active":false}],"next_page_url":"http:\/\/127.0.0.1:8000\/api\/admin\/users?page=2","path":"http:\/\/127.0.0.1:8000\/api\/admin\/users","per_page":5,"prev_page_url":null,"to":5,"total":13}}